{
  "users": [
    {
      "email": "irina@gmail.com",
      "phone": "+7 930 090 26 76",
      "password": "2b26a0bb26c7b7668effef63db878a33",
      "nickname": "Irina",
      "name": "Ирина",
      "id": "1ea29ef6-e8fc-54c9-8e58-43a47c67e6f1"
    },
    {
      "email": "olga@olga.olga",
      "phone": "+7 556 565 65 65",
      "password": "2b26a0bb26c7b7668effef63db878a33",
      "nickname": "olga",
      "name": "Ольга",
      "id": "7349f278-e000-5ff2-9ff0-9f0cc3fbca60"
    }
  ]
}
